<svg xmlns="http://www.w3.org/2000/svg" width="20" height="21" viewBox="0 0 20 21">
    <g fill="none" fill-rule="evenodd">
        <g>
            <g>
                <g>
                    <g>
                        <g>
                            <path d="M0 0H20V20H0z" transform="translate(-1316 -857) translate(918 128) translate(24 712) translate(0 15) translate(374 2.5)"/>
                            <path stroke="#333" stroke-linecap="round" stroke-linejoin="round" stroke-width="2" d="M5 8.333L10 13.333 15 8.333" transform="translate(-1316 -857) translate(918 128) translate(24 712) translate(0 15) translate(374 2.5)"/>
                        </g>
                    </g>
                </g>
            </g>
        </g>
    </g>
</svg>
