<svg id="Layer_1" data-name="Layer 1" xmlns="http://www.w3.org/2000/svg" viewBox="0 0 100 100">
  <defs>
    <style>
      .cls-1 {
        fill: #fff;
      }
    </style>
  </defs>
  <title>E-MAIL</title>
  <path class="cls-1" d="M.5,16.12V85.88h99V16.12Zm94.18,7.73v56L62,47.22,94.68,23.85ZM50,55.83l10-7.14L92.35,81.06H6.23l33-33ZM90.47,20.94,50,49.91l-40.47-29ZM37.14,46.63,5.32,78.45V23.85Z"/>
</svg>
